abet,Assist or encourage; usually in some wrongdoing
abut,Lie adjacent to another or share a boundary
acme,The highest level or degree attainable
act,To do something
aide,Someone who acts as an assistant
all,The entire amount; the full extent
any,One of a group; no matter which; a randomly chosen individual
apt,Naturally disposed toward
are,Present tense of the verb "to be"
aria,An elaborate song for solo voice
bane,Something causing misery or death
bar,To shut out; to not let in
bate,Moderate or restrain; lessen the force of
bent,Fixed in your purpose
bolt,Run away
boy,A young male person
can,A cylindrical container; usually made of thin metal
cant,Insincere talk about religion or morals
car,A powered; four-wheeled passenger vehicle for driving on roads
cede,Relinquish possession or control over
cite,Make reference to
clad,Wearing or provided with clothing
coax,Influence or urge by gentle urging; caressing; or flattering
coy,Showing marked and often playful evasiveness or reluctance
crew,The men and women who man a vehicle
dad,Familiar form of address for a father
dais,A platform raised above the surrounding level
day,A time period equal to one rotation of the Earth; or only the part of that period between sunrise and sunset
dew,Condensed moisture; as in the water found on grass after a cool night
dint,Force or effort
dote,Shower with love; show excessive affection for
eat,To consume food
ebb,Fall away or decline
fad,An interest followed with exaggerated zeal
fare,Proceed; get along; or succeed
flag,A rectangular piece of cloth of distinctive design
flay,Strip the skin off
foil,Hinder or prevent; as an effort; plan; or desire
ford,Cross a river where it's shallow
fray,A noisy fight
gale,A strong wind moving 45-90 knots
gawk,Look with amazement
get,To come into possession of something
gibe,Laugh at with contempt and derision
gird,Prepare oneself for action or a confrontation
gist,The central meaning or theme of a speech or literary work
glib,Having only superficial plausibility
gym,A room for athletics
hale,Exhibiting or restored to vigorous good health
has,Past tense of the verb to have; to own or possess
heed,Pay close attention to
hew,Make or shape as with an axe
how,In what way; in a particular fashion; can be used in questions or statements
ink,Liquid used to write; most often found inside a pen
jet,An airplane powered by gas turbines
jet,A stream of water
jibe,Be compatible; similar; or consistent
keen,Demonstrating ability to recognize or draw fine distinctions
key,Small metal tool used to open a door or start a car
let,To allow; to give permission to
lode,A deposit of valuable ore
log,A large piece of wood; particularly a section cut from a tree
lout,An awkward stupid person
mad,Most commonly means angry or upset; also an out-of-date way of describing someone with a mental illness; and by extension anything strange or bizarre
man,An adult male
maul,Injure badly
mien,A person's appearance; manner; or demeanor
mite,A slight but appreciable amount
mode,How something is done or how it happens
mom,Familiar form of address for a mother
moot,Of no legal significance; as having been previously decided
mote,A tiny piece of anything
muse,Reflect deeply on a subject
nap,To take a brief sleep; to doze
new,The opposite of old; something fresh or unprecedented
now,At the current time; immediately
old,Something which has existed for a long time
one,The first number; a single object; person; place or idea
out,To reveal something
pal,A casual word for friend
pall,A sudden numbing dread
peon,A laborer who is obliged to do menial work
pert,Characterized by a lightly saucy or impudent quality
plus,The arithmetic operation of summing
pomp,Cheap or pretentious or vain display
put,To place something in a spot of your choice
quip,Make jokes or witty remarks
rail,Complain bitterly
ram,To hit or strike with force
rapt,Feeling great delight and interest
rave,Praise enthusiastically
rend,Tear or be torn violently
rile,Disturb; especially by minor irritations
roil,Be agitated
rout,An overwhelming defeat
ruse,A deceptive maneuver; especially to avoid capture
sate,Fill to contentment
saw,A serrated blade with a handle; used as a tool to cut wood or other materials
say,To speak words
see,To look or perceive with one's eyes
slay,Kill intentionally and with premeditation
slew,A large number or amount or extent
sob,Weep convulsively
spat,A quarrel about petty points
tan,To turn golden brown from the sun
teem,Be full of or abuzz with
tide,The periodic rise and fall of the sea level
toil,Work hard
tour,A route all the way around a particular place or area
tout,Advertise in strongly positive terms
tyro,Someone new to a field or activity
urn,A decorative container with a narrow neck and rounded body
use,To employ for a task
vain,Unproductive of success
vat,A large open vessel for holding or storing liquids
vet,Short for veterinarian; a doctor who treats animals
vex,Disturb; especially by minor irritations
was,Past tense of the verb "to be"
wax,Increase in phase
way,A path or road; a method of doing something
wed,To get married
well,The adverbial form of good; meaning "done in a good way" or "happened in a positive fashion"
welt,A raised mark on the skin 
whet,Make keen or more acute
wont,An established custom
wry,Humorously sarcastic or mocking
yap,A shrill bark
zoo,An entertainment venue where people see interesting and unusual animals
